<?xml version="1.0" encoding="UTF-8" standalone="no"?>
<svg
   xmlns:dc="http://purl.org/dc/elements/1.1/"
   xmlns:cc="http://creativecommons.org/ns#"
   xmlns:rdf="http://www.w3.org/1999/02/22-rdf-syntax-ns#"
   xmlns:svg="http://www.w3.org/2000/svg"
   xmlns="http://www.w3.org/2000/svg"
   id="svg11844"
   version="1.1"
   viewBox="0 0 6.1700634 16.299672"
   height="16.299671mm"
   width="6.1700635mm">
  <defs
     id="defs11838">
    <clipPath
       id="clipPath2671"
       clipPathUnits="userSpaceOnUse">
      <path
         id="path2669"
         d="M 177.165,147.402 H 678.898 V 452.226 H 177.165 Z" />
    </clipPath>
    <clipPath
       id="clipPath2537"
       clipPathUnits="userSpaceOnUse">
      <path
         id="path2535"
         d="M 177.165,147.402 H 678.898 V 452.226 H 177.165 Z" />
    </clipPath>
    <clipPath
       id="clipPath2451"
       clipPathUnits="userSpaceOnUse">
      <path
         id="path2449"
         d="m 368.506,452.226 1.009,-44.768 81.388,0.348 -0.191,44.42 z" />
    </clipPath>
    <clipPath
       id="clipPath2371"
       clipPathUnits="userSpaceOnUse">
      <path
         id="path2369"
         d="m 368.506,452.226 1.009,-44.768 81.388,0.348 -0.191,44.42 z" />
    </clipPath>
  </defs>
  <metadata
     id="metadata11841">
    <rdf:RDF>
      <cc:Work
         rdf:about="">
        <dc:format>image/svg+xml</dc:format>
        <dc:type
           rdf:resource="http://purl.org/dc/dcmitype/StillImage" />
        <dc:title></dc:title>
      </cc:Work>
    </rdf:RDF>
  </metadata>
  <g
     transform="translate(-206.54831,-276.93868)"
     id="layer1">
    <g
       transform="matrix(0.0921875,0,0,0.0903237,162.47249,276.93881)"
       id="g2305">
      <g
         transform="translate(504.9747,78.2343)"
         id="g2307">
        <path
           id="path2309"
           style="fill:#ef3043;fill-opacity:1;fill-rule:nonzero;stroke:none"
           d="m 0,0 6.137,-0.241 3.76,95.719 -6.136,0.241 z" />
      </g>
    </g>
    <g
       transform="matrix(0.0921875,0,0,0.0903237,162.47249,276.93881)"
       id="g2311">
      <g
         transform="translate(483.5358,158.4297)"
         id="g2313">
        <path
           id="path2315"
           style="fill:#ef3043;fill-opacity:1;fill-rule:nonzero;stroke:none"
           d="m 0,0 4.137,-4.011 16.597,13.107 -4.137,4.01 z" />
      </g>
    </g>
    <g
       transform="matrix(0.0921875,0,0,0.0903237,162.47249,276.93881)"
       id="g2317">
      <g
         transform="translate(478.1106,175.086)"
         id="g2319">
        <path
           id="path2321"
           style="fill:#ef3043;fill-opacity:1;fill-rule:nonzero;stroke:none"
           d="M 0,0 22.451,-0.882 22.663,4.489 0.211,5.371 Z" />
      </g>
    </g>
    <g
       transform="matrix(0.0921875,0,0,0.0903237,162.47249,276.93881)"
       id="g2323">
      <g
         transform="translate(518.157,166.4037)"
         id="g2325">
        <path
           id="path2327"
           style="fill:#ef3043;fill-opacity:1;fill-rule:nonzero;stroke:none"
           d="m 0,0 15.517,-14.369 4.439,3.673 L 4.442,3.673 Z" />
      </g>
    </g>
    <g
       transform="matrix(0.0921875,0,0,0.0903237,162.47249,276.93881)"
       id="g2329">
      <g
         transform="translate(522.3771,172.7712)"
         id="g2331">
        <path
           id="path2333"
           style="fill:#ef3043;fill-opacity:1;fill-rule:nonzero;stroke:none"
           d="M 0,0 22.451,-0.882 22.663,4.489 0.211,5.372 Z" />
      </g>
    </g>
    <g
       transform="matrix(0.0921875,0,0,0.0903237,162.47249,276.93881)"
       id="g2335">
      <g
         transform="translate(492.8607,49.1436)"
         id="g2337">
        <path
           id="path2339"
           style="fill:#fab42c;fill-opacity:1;fill-rule:nonzero;stroke:none"
           d="M 0,0 -1.905,-49.145 H 25.469 L 27.426,-1.077 27.817,8.875 0.392,9.952 Z" />
      </g>
    </g>
    <g
       transform="matrix(0.0921875,0,0,0.0903237,162.47249,276.93881)"
       id="g2341">
      <g
         transform="translate(492.0912,63.1629)"
         id="g2343">
        <path
           id="path2345"
           style="fill:#918f90;fill-opacity:1;fill-rule:nonzero;stroke:none"
           d="M 0,0 30.597,-1.202 21.056,15.761 10.842,16.162 Z" />
      </g>
    </g>
    <g
       transform="matrix(0.0921875,0,0,0.0903237,162.47249,276.93881)"
       id="g2347">
      <g
         transform="translate(496.8135,51.5988)"
         id="g2349">
        <path
           id="path2351"
           style="fill:#918f90;fill-opacity:1;fill-rule:nonzero;stroke:none"
           d="M 0,0 19.725,-0.775 19.851,2.417 0.125,3.191 Z" />
      </g>
    </g>
    <g
       transform="matrix(0.0921875,0,0,0.0903237,162.47249,276.93881)"
       id="g2353">
      <g
         transform="translate(496.5948,46.0422)"
         id="g2355">
        <path
           id="path2357"
           style="fill:#918f90;fill-opacity:1;fill-rule:nonzero;stroke:none"
           d="M 0,0 19.726,-0.775 19.851,2.416 0.126,3.191 Z" />
      </g>
    </g>
    <g
       transform="matrix(0.0921875,0,0,0.0903237,162.47249,276.93881)"
       id="g2359">
      <g
         transform="translate(496.3671,40.2381)"
         id="g2361">
        <path
           id="path2363"
           style="fill:#918f90;fill-opacity:1;fill-rule:nonzero;stroke:none"
           d="M 0,0 19.725,-0.775 19.851,2.417 0.125,3.191 Z" />
      </g>
    </g>
  </g>
</svg>
